…
## Loading all team logs files at once
team_logs <- map_dfr(.x = list.files(
  here::here("data"),
  pattern = "team_logs_",
  full.names = TRUE
),
.f = read_csv) %>%
  janitor::clean_names() %>%
  mutate(name_team = ifelse(name_team == "LA Clippers", "Los Angeles Clippers", name_team)) ## NBA API inconsistent with Clippers name

team_logs
```

    ## # A tibble: 13,882 x 47
    ##    year_season slug_season slug_league type_season date_game  id_game
    ##          <dbl> <chr>       <chr>       <chr>       <date>       <dbl>
    ##  1        2015 2014-15     NBA         Regular Se~ 2014-10-28  2.14e7
    ##  2        2015 2014-15     NBA         Regular Se~ 2014-10-28  2.14e7
    ##  3        2015 2014-15     NBA         Regular Se~ 2014-10-28  2.14e7
    ##  4        2015 2014-15     NBA         Regular Se~ 2014-10-28  2.14e7
    ##  5        2015 2014-15     NBA         Regular Se~ 2014-10-28  2.14e7
    ##  6        2015 2014-15     NBA         Regular Se~ 2014-10-28  2.14e7
    ##  7        2015 2014-15     NBA         Regular Se~ 2014-10-29  2.14e7
    ##  8        2015 2014-15     NBA         Regular Se~ 2014-10-29  2.14e7
    ##  9        2015 2014-15     NBA         Regular Se~ 2014-10-29  2.14e7
    ## 10        2015 2014-15     NBA         Regular Se~ 2014-10-29  2.14e7
    ## # ... with 13,872 more rows, and 41 more variables:
    ## #   number_game_team_season <dbl>, name_team <chr>, id_team <dbl>,
    ## #   is_b2b <lgl>, is_b2b_first <lgl>, is_b2b_second <lgl>, location_game <chr>,
    ## #   slug_matchup <chr>, slug_team <chr>, count_days_rest_team <dbl>,
    ## #   count_days_next_game_team <dbl>, slug_opponent <chr>,
    ## #   slug_team_winner <chr>, slug_team_loser <chr>, outcome_game <chr>,
    ## #   is_win <lgl>, fgm_team <dbl>, fga_team <dbl>, pct_fg_team <dbl>,
    ## #   fg3m_team <dbl>, fg3a_team <dbl>, pct_fg3team <dbl>, pct_ft_team <dbl>,
    ## #   has_video <lgl>, fg2m_team <dbl>, fg2a_team <dbl>, pct_fg2team <dbl>,
…
game_level
```

    ## # A tibble: 6,941 x 7
    ##    year_season id_game date_game  home_team away_team home_team_win
    ##          <dbl>   <dbl> <date>     <chr>     <chr>     <lgl>        
    ##  1        2015  2.14e7 2014-10-28 New Orle~ Orlando ~ TRUE         
    ##  2        2015  2.14e7 2014-10-28 Los Ange~ Houston ~ FALSE        
    ##  3        2015  2.14e7 2014-10-28 San Anto~ Dallas M~ TRUE         
    ##  4        2015  2.14e7 2014-10-29 Memphis ~ Minnesot~ TRUE         
    ##  5        2015  2.14e7 2014-10-29 Toronto ~ Atlanta ~ TRUE         
    ##  6        2015  2.14e7 2014-10-29 Charlott~ Milwauke~ TRUE         
    ##  7        2015  2.14e7 2014-10-29 Denver N~ Detroit ~ TRUE         
    ##  8        2015  2.14e7 2014-10-29 Sacramen~ Golden S~ FALSE        
    ##  9        2015  2.14e7 2014-10-29 Utah Jazz Houston ~ FALSE        
    ## 10        2015  2.14e7 2014-10-29 Indiana ~ Philadel~ TRUE         
    ## # ... with 6,931 more rows, and 1 more variable: home_team_margin <dbl>
…
<!-- end list -->

``` r
## Creating a hyper parameter set for all combinations of a bunch of k factor, home advantage and regress factor options
elo_hyperparameters <- crossing(
  k_factor = seq(10, 40, 5),
  home_advantage = seq(10, 50, 5),
  regress_factor = seq(0.1, 0.5, 0.1)
)

## Lets have a look at what our parameter set looks like
elo_hyperparameters
```

    ## # A tibble: 315 x 3
    ##    k_factor home_advantage regress_factor
    ##       <dbl>          <dbl>          <dbl>
    ##  1       10             10            0.1
    ##  2       10             10            0.2
    ##  3       10             10            0.3
    ##  4       10             10            0.4
    ##  5       10             10            0.5
    ##  6       10             15            0.1
    ##  7       10             15            0.2
    ##  8       10             15            0.3
    ##  9       10             15            0.4
    ## 10       10             15            0.5
    ## # ... with 305 more rows
…
## Displaying accuracy of the hyperparameter set in descending order
elo_tuning_results %>%
  arrange(desc(percentage_accuracy))
```

    ## # A tibble: 315 x 4
    ##    k_factor home_advantage regress_factor percentage_accuracy
    ##       <dbl>          <dbl>          <dbl>               <dbl>
    ##  1       20             50            0.4               0.666
    ##  2       20             45            0.5               0.665
    ##  3       20             50            0.5               0.665
    ##  4       25             50            0.5               0.664
    ##  5       20             50            0.3               0.664
    ##  6       15             35            0.5               0.664
    ##  7       25             50            0.4               0.663
    ##  8       20             50            0.2               0.663
    ##  9       15             35            0.4               0.663
    ## 10       15             45            0.5               0.663
    ## # ... with 305 more rows
…
rolling_mean_features
```

    ## # A tibble: 13,162 x 12
    ## # Groups:   year_season, name_team [180]
    ##    year_season name_team id_game pct_fg_team pct_fg3team pct_ft_team treb_team
    ##          <dbl> <chr>       <dbl>       <dbl>       <dbl>       <dbl>     <dbl>
    ##  1        2015 Houston ~  2.14e7       0.461       0.443       0.734      43.2
    ##  2        2015 Oklahoma~  2.14e7       0.443       0.269       0.704      43.2
    ##  3        2015 Los Ange~  2.14e7       0.432       0.324       0.760      40  
    ##  4        2015 Miami He~  2.14e7       0.457       0.361       0.747      38.4
    ##  5        2015 Charlott~  2.14e7       0.426       0.307       0.741      43  
    ##  6        2015 Philadel~  2.14e7       0.430       0.325       0.638      38  
    ##  7        2015 Orlando ~  2.14e7       0.448       0.338       0.683      45.6
    ##  8        2015 Toronto ~  2.14e7       0.431       0.289       0.780      37.8
    ##  9        2015 New York~  2.14e7       0.441       0.432       0.778      38.8
    ## 10        2015 Chicago ~  2.14e7       0.475       0.376       0.777      42.6
    ## # ... with 13,152 more rows, and 5 more variables: ast_team <dbl>,
    ## #   stl_team <dbl>, blk_team <dbl>, tov_team <dbl>, plusminus_team <dbl>
…
<!-- end list -->

``` r
last_game_lookup <- team_logs %>%
  group_by(year_season, name_team) %>%
  arrange(id_game) %>%
  mutate(id_game_prev = lag(id_game)) %>%
  select(year_season, name_team, id_game, id_game_prev) %>% 
  filter(!is.na(id_game_prev))

last_game_lookup
```

    ## # A tibble: 13,702 x 4
    ## # Groups:   year_season, name_team [180]
    ##    year_season name_team               id_game id_game_prev
    ##          <dbl> <chr>                     <dbl>        <dbl>
    ##  1        2015 Houston Rockets        21400012     21400003
    ##  2        2015 Los Angeles Lakers     21400013     21400003
    ##  3        2015 Washington Wizards     21400016     21400007
    ##  4        2015 Orlando Magic          21400016     21400001
    ##  5        2015 Detroit Pistons        21400017     21400011
    ##  6        2015 Minnesota Timberwolves 21400017     21400009
    ##  7        2015 New York Knicks        21400018     21400010
    ##  8        2015 Utah Jazz              21400019     21400012
    ##  9        2015 Dallas Mavericks       21400019     21400002
    ## 10        2015 Oklahoma City Thunder  21400020     21400015
    ## # ... with 13,692 more rows
…
features
```

    ## # A tibble: 6,469 x 21
    ##    year_season id_game date_game  home_team away_team home_elo away_elo
    ##          <dbl>   <dbl> <date>     <chr>     <chr>        <dbl>    <dbl>
    ##  1        2015  2.14e7 2014-11-07 Oklahoma~ Memphis ~    1476.    1550.
    ##  2        2015  2.14e7 2014-11-07 Toronto ~ Washingt~    1529.    1530.
    ##  3        2015  2.14e7 2014-11-07 Utah Jazz Dallas M~    1491.    1511.
    ##  4        2015  2.14e7 2014-11-07 Phoenix ~ Sacramen~    1507.    1529.
    ##  5        2015  2.14e7 2014-11-07 Philadel~ Chicago ~    1451.    1529.
    ##  6        2015  2.14e7 2014-11-08 Milwauke~ Memphis ~    1483.    1559.
    ##  7        2015  2.14e7 2014-11-08 Indiana ~ Washingt~    1462.    1521.
    ##  8        2015  2.14e7 2014-11-08 Miami He~ Minnesot~    1507.    1491.
    ##  9        2015  2.14e7 2014-11-08 Los Ange~ Portland~    1507.    1507.
    ## 10        2015  2.14e7 2014-11-08 Chicago ~ Boston C~    1538.    1490.
    ## # ... with 6,459 more rows, and 14 more variables: diff_pct_fg_team <dbl>,
    ## #   diff_pct_fg3team <dbl>, diff_pct_ft_team <dbl>, diff_treb_team <dbl>,
    ## #   diff_ast_team <dbl>, diff_stl_team <dbl>, diff_blk_team <dbl>,
    ## #   diff_tov_team <dbl>, diff_plusminus_team <dbl>,
    ## #   home_count_days_rest_team <dbl>, home_count_days_next_game_team <dbl>,
    ## #   away_count_days_rest_team <dbl>, away_count_days_next_game_team <dbl>,
    ## #   home_team_margin <dbl>
…
predictions <- xgboost_chosen_model %>%
  fit(formula = home_team_margin  ~ .,
      data = features_proprocessed) %>%
  predict(new_data = test_data_preprocessed)

test_set_with_predictions <- splits %>%
  testing() %>%
  bind_cols(predictions) %>%
  rename(predicted_margin = `.pred`)

test_set_with_predictions
```

    ## # A tibble: 1,293 x 22
    ##    year_season id_game date_game  home_team away_team home_elo away_elo
    ##          <dbl>   <dbl> <date>     <chr>     <chr>        <dbl>    <dbl>
    ##  1        2015  2.14e7 2014-11-08 Miami He~ Minnesot~    1507.    1491.
    ##  2        2015  2.14e7 2014-11-08 Chicago ~ Boston C~    1538.    1490.
    ##  3        2015  2.14e7 2014-11-09 Oklahoma~ Sacramen~    1467.    1539.
    ##  4        2015  2.14e7 2014-11-09 Detroit ~ Utah Jazz    1490.    1480.
    ##  5        2015  2.14e7 2014-11-09 Los Ange~ Charlott~    1452.    1499.
    ##  6        2015  2.14e7 2014-11-10 Clevelan~ New Orle~    1494.    1509.
    ##  7        2015  2.14e7 2014-11-11 Dallas M~ Sacramen~    1510.    1529.
    ##  8        2015  2.14e7 2014-11-11 Golden S~ San Anto~    1540.    1502.
    ##  9        2015  2.14e7 2014-11-12 Phoenix ~ Brooklyn~    1506.    1515.
    ## 10        2015  2.14e7 2014-11-13 Golden S~ Brooklyn~    1527.    1506.
    ## # ... with 1,283 more rows, and 15 more variables: diff_pct_fg_team <dbl>,
    ## #   diff_pct_fg3team <dbl>, diff_pct_ft_team <dbl>, diff_treb_team <dbl>,
    ## #   diff_ast_team <dbl>, diff_stl_team <dbl>, diff_blk_team <dbl>,
    ## #   diff_tov_team <dbl>, diff_plusminus_team <dbl>,
    ## #   home_count_days_rest_team <dbl>, home_count_days_next_game_team <dbl>,
    ## #   away_count_days_rest_team <dbl>, away_count_days_next_game_team <dbl>,
    ## #   home_team_margin <dbl>, predicted_margin <dbl>
…
<!-- end list -->

``` r
most_recent_features <- 
  rolling_mean_features %>%
  filter(year_season == 2020) %>%
  group_by(name_team) %>%
  top_n(n = 1, wt = id_game) %>%
  ungroup() %>%
  select(-year_season, -id_game)

most_recent_features
```

    ## # A tibble: 30 x 10
    ##    name_team pct_fg_team pct_fg3team pct_ft_team treb_team ast_team stl_team
    ##    <chr>           <dbl>       <dbl>       <dbl>     <dbl>    <dbl>    <dbl>
    ##  1 Milwauke~       0.468       0.342       0.701      56.2     27.6      5.8
    ##  2 Orlando ~       0.439       0.341       0.766      40       25.2      8  
    ##  3 Dallas M~       0.443       0.439       0.934      48.2     24.2      5.2
    ##  4 Charlott~       0.445       0.314       0.724      42.6     24.4      5.8
    ##  5 Detroit ~       0.452       0.385       0.718      40.2     25        6.2
    ##  6 Indiana ~       0.477       0.333       0.744      40       25.8      5.4
    ##  7 New Orle~       0.479       0.369       0.753      53.4     28.4      8.8
    ##  8 Toronto ~       0.506       0.405       0.793      42.4     26.2      8.4
    ##  9 Brooklyn~       0.496       0.408       0.779      49       28        6  
    ## 10 Minnesot~       0.473       0.374       0.729      42.6     27        9.8
    ## # ... with 20 more rows, and 3 more variables: blk_team <dbl>, tov_team <dbl>,
    ## #   plusminus_team <dbl>
…
<!-- end list -->

``` r
most_recent_elo <- 
  calculated_elos_expanded %>%
  filter(year_season == 2020) %>%
  group_by(name_team) %>%
  top_n(n = 1, wt = id_game) %>%
  ungroup() %>%
  select(-year_season, -id_game)

most_recent_elo
```

    ## # A tibble: 30 x 2
    ##    name_team                elo
    ##    <chr>                  <dbl>
    ##  1 Orlando Magic          1454.
    ##  2 Milwaukee Bucks        1722.
    ##  3 Charlotte Hornets      1363.
    ##  4 Dallas Mavericks       1535.
    ##  5 Detroit Pistons        1381.
    ##  6 Indiana Pacers         1531.
    ##  7 New Orleans Pelicans   1495.
    ##  8 Toronto Raptors        1662.
    ##  9 Brooklyn Nets          1460.
    ## 10 Minnesota Timberwolves 1364.
    ## # ... with 20 more rows
…
schedule_features
```

    ## # A tibble: 2,400 x 4
    ##    date_game  name_team             count_days_rest_te~ count_days_next_game_te~
    ##    <date>     <chr>                               <dbl>                    <dbl>
    ##  1 2019-10-24 Detroit Pistons                         0                        1
    ##  2 2019-10-24 Los Angeles Clippers                    1                        1
    ##  3 2019-10-25 Boston Celtics                          1                        0
    ##  4 2019-10-25 Charlotte Hornets                       1                        1
    ##  5 2019-10-25 Brooklyn Nets                           1                        1
    ##  6 2019-10-25 Memphis Grizzlies                       1                        1
    ##  7 2019-10-25 New Orleans Pelicans                    2                        0
    ##  8 2019-10-25 Oklahoma City Thunder                   1                        1
    ##  9 2019-10-25 Denver Nuggets                          1                        2
    ## 10 2019-10-25 Sacramento Kings                        1                        0
    ## # ... with 2,390 more rows
…
